<?xml version="1.0" encoding="UTF-8" standalone="no"?>
<!-- Created with Inkscape (http://www.inkscape.org/) -->

<svg
   xmlns:dc="http://purl.org/dc/elements/1.1/"
   xmlns:cc="http://creativecommons.org/ns#"
   xmlns:rdf="http://www.w3.org/1999/02/22-rdf-syntax-ns#"
   xmlns:svg="http://www.w3.org/2000/svg"
   xmlns="http://www.w3.org/2000/svg"
   xmlns:xlink="http://www.w3.org/1999/xlink"
   xmlns:sodipodi="http://sodipodi.sourceforge.net/DTD/sodipodi-0.dtd"
   xmlns:inkscape="http://www.inkscape.org/namespaces/inkscape"
   width="30"
   height="30"
   id="svg2"
   sodipodi:version="0.32"
   inkscape:version="0.48.4 r9939"
   version="1.0"
   sodipodi:docname="valawhole.svg"
   inkscape:output_extension="org.inkscape.output.svg.inkscape"
   inkscape:export-filename="D:\proj\icons\released\icon_colors.png"
   inkscape:export-xdpi="45"
   inkscape:export-ydpi="45"
   sodipodi:modified="TRUE">
  <defs
     id="defs4">
    <linearGradient
       id="linearGradient3245">
      <stop
         style="stop-color:#d3d3d1;stop-opacity:1;"
         offset="0"
         id="stop3247" />
      <stop
         style="stop-color:#6e706c;stop-opacity:1;"
         offset="1"
         id="stop3249" />
    </linearGradient>
    <linearGradient
       id="linearGradient3237">
      <stop
         style="stop-color:#9e6898;stop-opacity:1;"
         offset="0"
         id="stop3239" />
      <stop
         style="stop-color:#dcc8da;stop-opacity:1;"
         offset="1"
         id="stop3241" />
    </linearGradient>
    <linearGradient
       id="linearGradient3224">
      <stop
         style="stop-color:#f9a2a2;stop-opacity:1;"
         offset="0"
         id="stop3226" />
      <stop
         style="stop-color:#ef2929;stop-opacity:1;"
         offset="1"
         id="stop3228" />
    </linearGradient>
    <linearGradient
       id="linearGradient3216">
      <stop
         style="stop-color:#5a8fc7;stop-opacity:1;"
         offset="0"
         id="stop3218" />
      <stop
         style="stop-color:#bfd4ea;stop-opacity:1;"
         offset="1"
         id="stop3220" />
    </linearGradient>
    <linearGradient
       id="linearGradient3208">
      <stop
         style="stop-color:#7bdb1e;stop-opacity:1;"
         offset="0"
         id="stop3210" />
      <stop
         style="stop-color:#bbef89;stop-opacity:1;"
         offset="1"
         id="stop3212" />
    </linearGradient>
    <linearGradient
       id="linearGradient3194">
      <stop
         style="stop-color:#fee440;stop-opacity:1;"
         offset="0"
         id="stop3196" />
      <stop
         style="stop-color:#fda221;stop-opacity:1;"
         offset="1"
         id="stop3198" />
    </linearGradient>
    <linearGradient
       inkscape:collect="always"
       xlink:href="#linearGradient3224"
       id="linearGradient2418"
       gradientUnits="userSpaceOnUse"
       x1="23"
       y1="19"
       x2="27"
       y2="23"
       gradientTransform="translate(0,4)" />
    <linearGradient
       inkscape:collect="always"
       xlink:href="#linearGradient3216"
       id="linearGradient2421"
       gradientUnits="userSpaceOnUse"
       x1="17"
       y1="23"
       x2="13"
       y2="19"
       gradientTransform="translate(0,4)" />
    <linearGradient
       inkscape:collect="always"
       xlink:href="#linearGradient3208"
       id="linearGradient2424"
       gradientUnits="userSpaceOnUse"
       x1="7"
       y1="23"
       x2="3"
       y2="19"
       gradientTransform="translate(0,4)" />
    <linearGradient
       inkscape:collect="always"
       xlink:href="#linearGradient3194"
       id="linearGradient2441"
       gradientUnits="userSpaceOnUse"
       gradientTransform="translate(9.9999998,-1)"
       x1="13"
       y1="4"
       x2="17"
       y2="8" />
    <linearGradient
       inkscape:collect="always"
       xlink:href="#linearGradient3194"
       id="linearGradient2447"
       gradientUnits="userSpaceOnUse"
       gradientTransform="translate(0,-1)"
       x1="13"
       y1="4"
       x2="17"
       y2="8" />
    <linearGradient
       inkscape:collect="always"
       xlink:href="#linearGradient3194"
       id="linearGradient2453"
       gradientUnits="userSpaceOnUse"
       gradientTransform="translate(-10,-1)"
       x1="13"
       y1="4"
       x2="17"
       y2="8" />
    <linearGradient
       inkscape:collect="always"
       xlink:href="#linearGradient3194"
       id="linearGradient2459"
       gradientUnits="userSpaceOnUse"
       gradientTransform="translate(9.9999998,9)"
       x1="13"
       y1="4"
       x2="17"
       y2="8" />
    <linearGradient
       inkscape:collect="always"
       xlink:href="#linearGradient3237"
       id="linearGradient3243"
       x1="7"
       y1="17"
       x2="3"
       y2="13"
       gradientUnits="userSpaceOnUse"
       gradientTransform="translate(0,-10)" />
    <linearGradient
       inkscape:collect="always"
       xlink:href="#linearGradient3245"
       id="linearGradient3251"
       x1="13"
       y1="13"
       x2="17"
       y2="17"
       gradientUnits="userSpaceOnUse" />
    <linearGradient
       inkscape:collect="always"
       xlink:href="#linearGradient3208"
       id="linearGradient3257"
       gradientUnits="userSpaceOnUse"
       gradientTransform="translate(10,-16)"
       x1="7"
       y1="23"
       x2="3"
       y2="19" />
    <linearGradient
       inkscape:collect="always"
       xlink:href="#linearGradient3224"
       id="linearGradient3263"
       gradientUnits="userSpaceOnUse"
       gradientTransform="translate(-20,-6)"
       x1="23"
       y1="19"
       x2="27"
       y2="23" />
    <linearGradient
       inkscape:collect="always"
       xlink:href="#linearGradient3216"
       id="linearGradient3269"
       gradientUnits="userSpaceOnUse"
       gradientTransform="translate(10,-6)"
       x1="17"
       y1="23"
       x2="13"
       y2="19" />
    <linearGradient
       inkscape:collect="always"
       xlink:href="#linearGradient3245"
       id="linearGradient3307"
       gradientUnits="userSpaceOnUse"
       x1="13"
       y1="13"
       x2="17"
       y2="17" />
    <linearGradient
       inkscape:collect="always"
       xlink:href="#linearGradient3208"
       id="linearGradient3309"
       gradientUnits="userSpaceOnUse"
       gradientTransform="translate(0,4)"
       x1="7"
       y1="23"
       x2="3"
       y2="19" />
    <linearGradient
       inkscape:collect="always"
       xlink:href="#linearGradient3224"
       id="linearGradient3311"
       gradientUnits="userSpaceOnUse"
       gradientTransform="translate(-20,-6)"
       x1="23"
       y1="19"
       x2="27"
       y2="23" />
    <linearGradient
       inkscape:collect="always"
       xlink:href="#linearGradient3237"
       id="linearGradient3313"
       gradientUnits="userSpaceOnUse"
       gradientTransform="translate(0,-10)"
       x1="7"
       y1="17"
       x2="3"
       y2="13" />
    <linearGradient
       inkscape:collect="always"
       xlink:href="#linearGradient3194"
       id="linearGradient3315"
       gradientUnits="userSpaceOnUse"
       gradientTransform="translate(9.9999998,-1)"
       x1="13"
       y1="4"
       x2="17"
       y2="8" />
    <linearGradient
       inkscape:collect="always"
       xlink:href="#linearGradient3216"
       id="linearGradient3317"
       gradientUnits="userSpaceOnUse"
       gradientTransform="translate(10,-6)"
       x1="17"
       y1="23"
       x2="13"
       y2="19" />
    <linearGradient
       inkscape:collect="always"
       xlink:href="#linearGradient3245"
       id="linearGradient3325"
       gradientUnits="userSpaceOnUse"
       x1="13"
       y1="13"
       x2="17"
       y2="17" />
    <linearGradient
       inkscape:collect="always"
       xlink:href="#linearGradient3245"
       id="linearGradient3333"
       gradientUnits="userSpaceOnUse"
       x1="13"
       y1="13"
       x2="17"
       y2="17" />
    <linearGradient
       inkscape:collect="always"
       xlink:href="#linearGradient3245"
       id="linearGradient3341"
       gradientUnits="userSpaceOnUse"
       x1="13"
       y1="13"
       x2="17"
       y2="17" />
    <linearGradient
       inkscape:collect="always"
       xlink:href="#linearGradient3245"
       id="linearGradient3349"
       gradientUnits="userSpaceOnUse"
       x1="13"
       y1="13"
       x2="17"
       y2="17" />
    <linearGradient
       inkscape:collect="always"
       xlink:href="#linearGradient3224"
       id="linearGradient3357"
       gradientUnits="userSpaceOnUse"
       gradientTransform="translate(-20,-6)"
       x1="23"
       y1="19"
       x2="27"
       y2="23" />
    <linearGradient
       inkscape:collect="always"
       xlink:href="#linearGradient3224"
       id="linearGradient3365"
       gradientUnits="userSpaceOnUse"
       gradientTransform="translate(-20,-6)"
       x1="23"
       y1="19"
       x2="27"
       y2="23" />
    <linearGradient
       inkscape:collect="always"
       xlink:href="#linearGradient3224"
       id="linearGradient3373"
       gradientUnits="userSpaceOnUse"
       gradientTransform="translate(-20,-6)"
       x1="23"
       y1="19"
       x2="27"
       y2="23" />
    <linearGradient
       inkscape:collect="always"
       xlink:href="#linearGradient3224"
       id="linearGradient3381"
       gradientUnits="userSpaceOnUse"
       gradientTransform="translate(-20,-6)"
       x1="23"
       y1="19"
       x2="27"
       y2="23" />
    <linearGradient
       inkscape:collect="always"
       xlink:href="#linearGradient3194"
       id="linearGradient3389"
       gradientUnits="userSpaceOnUse"
       gradientTransform="translate(9.9999998,-1)"
       x1="13"
       y1="4"
       x2="17"
       y2="8" />
    <linearGradient
       inkscape:collect="always"
       xlink:href="#linearGradient3194"
       id="linearGradient3397"
       gradientUnits="userSpaceOnUse"
       gradientTransform="translate(9.9999998,-1)"
       x1="13"
       y1="4"
       x2="17"
       y2="8" />
    <linearGradient
       inkscape:collect="always"
       xlink:href="#linearGradient3194"
       id="linearGradient3405"
       gradientUnits="userSpaceOnUse"
       gradientTransform="translate(9.9999998,-1)"
       x1="13"
       y1="4"
       x2="17"
       y2="8" />
    <linearGradient
       inkscape:collect="always"
       xlink:href="#linearGradient3194"
       id="linearGradient3413"
       gradientUnits="userSpaceOnUse"
       gradientTransform="translate(9.9999998,-1)"
       x1="13"
       y1="4"
       x2="17"
       y2="8" />
    <linearGradient
       inkscape:collect="always"
       xlink:href="#linearGradient3194"
       id="linearGradient3421"
       gradientUnits="userSpaceOnUse"
       gradientTransform="translate(9.9999998,-1)"
       x1="13"
       y1="4"
       x2="17"
       y2="8" />
    <linearGradient
       inkscape:collect="always"
       xlink:href="#linearGradient3194"
       id="linearGradient3429"
       gradientUnits="userSpaceOnUse"
       gradientTransform="translate(9.9999998,-1)"
       x1="13"
       y1="4"
       x2="17"
       y2="8" />
    <linearGradient
       inkscape:collect="always"
       xlink:href="#linearGradient3194"
       id="linearGradient3437"
       gradientUnits="userSpaceOnUse"
       gradientTransform="translate(9.9999998,-1)"
       x1="13"
       y1="4"
       x2="17"
       y2="8" />
    <linearGradient
       inkscape:collect="always"
       xlink:href="#linearGradient3194"
       id="linearGradient3445"
       gradientUnits="userSpaceOnUse"
       gradientTransform="translate(9.9999998,-1)"
       x1="13"
       y1="4"
       x2="17"
       y2="8" />
    <linearGradient
       inkscape:collect="always"
       xlink:href="#linearGradient3237"
       id="linearGradient3453"
       gradientUnits="userSpaceOnUse"
       gradientTransform="translate(0,-10)"
       x1="7"
       y1="17"
       x2="3"
       y2="13" />
    <linearGradient
       inkscape:collect="always"
       xlink:href="#linearGradient3216"
       id="linearGradient3469"
       gradientUnits="userSpaceOnUse"
       gradientTransform="translate(0,-5)"
       x1="17"
       y1="23"
       x2="13"
       y2="19" />
    <linearGradient
       inkscape:collect="always"
       xlink:href="#linearGradient3208"
       id="linearGradient3477"
       gradientUnits="userSpaceOnUse"
       gradientTransform="translate(0,4)"
       x1="7"
       y1="23"
       x2="3"
       y2="19" />
    <linearGradient
       inkscape:collect="always"
       xlink:href="#linearGradient3208"
       id="linearGradient3485"
       gradientUnits="userSpaceOnUse"
       gradientTransform="translate(0,4)"
       x1="7"
       y1="23"
       x2="3"
       y2="19" />
    <linearGradient
       inkscape:collect="always"
       xlink:href="#linearGradient3194"
       id="linearGradient3493"
       gradientUnits="userSpaceOnUse"
       gradientTransform="translate(9.9999998,-1)"
       x1="13"
       y1="4"
       x2="17"
       y2="8" />
    <linearGradient
       inkscape:collect="always"
       xlink:href="#linearGradient3224"
       id="linearGradient3501"
       gradientUnits="userSpaceOnUse"
       gradientTransform="translate(-20,-6)"
       x1="23"
       y1="19"
       x2="27"
       y2="23" />
    <linearGradient
       inkscape:collect="always"
       xlink:href="#linearGradient3194"
       id="linearGradient3509"
       gradientUnits="userSpaceOnUse"
       gradientTransform="translate(9.9999998,-1)"
       x1="13"
       y1="4"
       x2="17"
       y2="8" />
    <linearGradient
       inkscape:collect="always"
       xlink:href="#linearGradient3194"
       id="linearGradient3517"
       gradientUnits="userSpaceOnUse"
       gradientTransform="translate(9.9999998,-1)"
       x1="13"
       y1="4"
       x2="17"
       y2="8" />
    <linearGradient
       inkscape:collect="always"
       xlink:href="#linearGradient3216"
       id="linearGradient3520"
       gradientUnits="userSpaceOnUse"
       gradientTransform="translate(-10,4)"
       x1="17"
       y1="23"
       x2="13"
       y2="19" />
  </defs>
  <sodipodi:namedview
     id="base"
     pagecolor="#ffffff"
     bordercolor="#666666"
     borderopacity="1.0"
     inkscape:pageopacity="0.0"
     inkscape:pageshadow="2"
     inkscape:zoom="26.9"
     inkscape:cx="15.204461"
     inkscape:cy="16.49454"
     inkscape:document-units="px"
     inkscape:current-layer="g3367"
     width="30px"
     height="30px"
     showgrid="false"
     gridtolerance="10000"
     inkscape:grid-points="true"
     inkscape:window-width="1920"
     inkscape:window-height="1014"
     inkscape:window-x="0"
     inkscape:window-y="27"
     showguides="true"
     inkscape:snap-global="true"
     inkscape:window-maximized="1">
    <inkscape:grid
       type="xygrid"
       id="grid2395" />
  </sodipodi:namedview>
  <metadata
     id="metadata7">
    <rdf:RDF>
      <cc:Work
         rdf:about="">
        <dc:format>image/svg+xml</dc:format>
        <dc:type
           rdf:resource="http://purl.org/dc/dcmitype/StillImage" />
        <dc:title>icon_colors_grid</dc:title>
        <dc:date>2008-05-12</dc:date>
        <dc:creator>
          <cc:Agent>
            <dc:title>Jean-Victor Balin</dc:title>
          </cc:Agent>
        </dc:creator>
        <dc:language>fr-FR</dc:language>
        <dc:subject>
          <rdf:Bag>
            <rdf:li>icon</rdf:li>
            <rdf:li>colors</rdf:li>
            <rdf:li>grid</rdf:li>
          </rdf:Bag>
        </dc:subject>
        <dc:description>jean.victor.balin@gmail.com</dc:description>
        <cc:license
           rdf:resource="http://creativecommons.org/licenses/publicdomain/" />
      </cc:Work>
      <cc:License
         rdf:about="http://creativecommons.org/licenses/publicdomain/">
        <cc:permits
           rdf:resource="http://creativecommons.org/ns#Reproduction" />
        <cc:permits
           rdf:resource="http://creativecommons.org/ns#Distribution" />
        <cc:permits
           rdf:resource="http://creativecommons.org/ns#DerivativeWorks" />
      </cc:License>
    </rdf:RDF>
  </metadata>
  <g
     inkscape:label="Calque 1"
     inkscape:groupmode="layer"
     id="layer1">
    <rect
       style="fill:#427bc3;fill-opacity:1;stroke:none"
       id="rect3465"
       width="6"
       height="0"
       x="16"
       y="12.5"
       ry="0" />
    <g
       id="g3359"
       transform="translate(10,-10)">
      <path
         id="path3361"
         d="M 1,11 L 9,11 L 9,19 L 1,19 L 1,11 z"
         style="fill:#a40000;fill-opacity:1;stroke:none" />
      <path
         id="path3363"
         d="M 2,12 L 8,12 L 8,18 L 2,18 L 2,12 z"
         style="fill:url(#linearGradient3365);fill-opacity:1;stroke:none" />
    </g>
    <g
       id="g3367"
       transform="translate(20,0)">
      <path
         id="path3369"
         d="M 1,11 L 9,11 L 9,19 L 1,19 L 1,11 z"
         style="fill:#a40000;fill-opacity:1;stroke:none" />
      <path
         id="path3371"
         d="M 2,12 L 8,12 L 8,18 L 2,18 L 2,12 z"
         style="fill:url(#linearGradient3373);fill-opacity:1.0;stroke:none" />
    </g>
    <g
       id="g3523">
      <path
         id="path3465"
         d="M 1,21 L 9,21 L 9,29 L 1,29 L 1,21 z"
         style="fill:#204a87;fill-opacity:1;stroke:none" />
      <path
         id="path3467"
         d="M 2,22 L 8,22 L 8,28 L 2,28 L 2,22 z"
         style="fill:url(#linearGradient3520);fill-opacity:1;stroke:none" />
    </g>
    <g
       id="g3471"
       transform="translate(0,-10)">
      <path
         id="path3473"
         d="M 1,21 L 9,21 L 9,29 L 1,29 L 1,21 z"
         style="fill:#4e9a06;fill-opacity:1;stroke:none" />
      <path
         id="path3475"
         d="M 2,22 L 8,22 L 8,28 L 2,28 L 2,22 z"
         style="fill:url(#linearGradient3477);fill-opacity:1;stroke:none" />
    </g>
    <g
       id="g3479"
       transform="translate(10,0)">
      <path
         id="path3481"
         d="M 1,21 L 9,21 L 9,29 L 1,29 L 1,21 z"
         style="fill:#4e9a06;fill-opacity:1;stroke:none" />
      <path
         id="path3483"
         d="M 2,22 L 8,22 L 8,28 L 2,28 L 2,22 z"
         style="fill:url(#linearGradient3485);fill-opacity:1;stroke:none" />
    </g>
    <g
       id="g3487"
       transform="translate(-10,10)">
      <path
         id="path3489"
         d="M 21,1 L 29,1 L 29,9 L 21,9 L 21,1 z"
         style="fill:#ce5c00;fill-opacity:1;stroke:none" />
      <path
         id="path3491"
         d="M 22,2 L 28,2 L 28,8 L 22,8 L 22,2 z"
         style="fill:url(#linearGradient3493);fill-opacity:1;stroke:none" />
    </g>
    <g
       id="g3495"
       transform="translate(20,-10)">
      <path
         id="path3497"
         d="M 1,11 L 9,11 L 9,19 L 1,19 L 1,11 z"
         style="fill:#a40000;fill-opacity:1;stroke:none" />
      <path
         id="path3499"
         d="M 2,12 L 8,12 L 8,18 L 2,18 L 2,12 z"
         style="fill:url(#linearGradient3501);fill-opacity:1;stroke:none" />
    </g>
    <g
       id="g3511"
       transform="translate(-20,0)">
      <path
         id="path3513"
         d="M 21,1 L 29,1 L 29,9 L 21,9 L 21,1 z"
         style="fill:#ce5c00;fill-opacity:1;stroke:none" />
      <path
         id="path3515"
         d="M 22,2 L 28,2 L 28,8 L 22,8 L 22,2 z"
         style="fill:url(#linearGradient3517);fill-opacity:1;stroke:none" />
    </g>
  </g>
</svg>
